0005258800052588050000350005258800052588
0005258800052592000525920005259200052588
0005259200052588000525880005258800052592
0005258800052592000525920005259200052588
0905258009052580090525800905258009052580